[
  {
    "_id":"5c701836ab81192be0e64459",
    "__v":0,
    "date":"2020-04-13T15:06:18.795Z"
  },
  {
    "_id":"55143cf54356001100106010",
    "__v":0,
    "date":"2020-04-13T15:06:23.799Z"
  },
  {
    "_id":"55143d1f4356001100106013",
    "__v":0,
    "date":"2020-04-13T15:06:28.802Z"
  },
  {
    "_id":"5515315e7fd14d11007f193c",
    "__v":0,
    "date":"2020-04-13T15:06:33.805Z"
  },
  {
    "_id":"551532117fd14d11007f194e",
    "__v":0,
    "date":"2020-04-13T15:06:38.807Z"
  },
  {
    "_id":"556358b7917ef91100aa2d1e",
    "__v":0,
    "date":"2020-04-13T15:06:43.810Z"
  },
  {
    "_id":"5567251ba1a70911001bc2c2",
    "__v":0,
    "date":"2020-04-13T15:06:48.811Z"
  },
  {
    "_id":"556d8e091700b51100c7905c",
    "__v":0,
    "date":"2020-04-13T15:06:53.815Z"
  },
  {
    "_id":"5582a49dd02c2c11002fd274",
    "__v":0,
    "date":"2020-04-13T15:06:58.815Z"
  },
  {
    "_id":"558c040950771311008e1f60",
    "__v":0,
    "date":"2020-04-13T15:07:03.815Z"
  },
  {
    "_id":"559a5ff85d070d98124501aa",
    "__v":0,
    "date":"2020-04-13T15:07:08.818Z"
  },
  {
    "_id":"559a61ec8d8a84e010c3ad03",
    "__v":0,
    "date":"2020-04-13T15:07:13.821Z"
  },
  {
    "_id":"559aaafc9927151100e1e9f8",
    "__v":0,
    "date":"2020-04-13T15:07:18.824Z"
  },
  {
    "_id":"55a79cb922660a110040b311",
    "__v":0,
    "date":"2020-04-13T15:07:23.827Z"
  },
  {
    "_id":"55a7d9d7c66f3111008e442a",
    "__v":0,
    "date":"2020-04-13T15:07:28.830Z"
  },
  {
    "_id":"55a7d9eac66f3111008e442b",
    "__v":0,
    "date":"2020-04-13T15:07:33.833Z"
  },
  {
    "_id":"55a7d9f8c66f3111008e442c",
    "__v":0,
    "date":"2020-04-13T15:07:38.836Z"
  },
  {
    "_id":"55a7da01c66f3111008e442d",
    "__v":0,
    "date":"2020-04-13T15:07:43.839Z"
  },
  {
    "_id":"55a8cbe55945261100e9354d",
    "__v":0,
    "date":"2020-04-13T15:07:48.842Z"
  },
  {
    "_id":"55a8ecbf5945261100e93578",
    "__v":0,
    "date":"2020-04-13T15:07:53.844Z"
  },
  {
    "_id":"55ccc39a6675e91100163eb8",
    "__v":0,
    "date":"2020-04-13T15:07:58.847Z"
  },
  {
    "_id":"55ccc3d76675e91100163ebb",
    "__v":0,
    "date":"2020-04-13T15:08:03.850Z"
  },
  {
    "_id":"55ccc43c6675e91100163ebe",
    "__v":0,
    "date":"2020-04-13T15:08:08.850Z"
  },
  {
    "_id":"55ccc47d6675e91100163ec1",
    "__v":0,
    "date":"2020-04-13T15:08:13.853Z"
  },
  {
    "_id":"55ccc4d86675e91100163ec4",
    "__v":0,
    "date":"2020-04-13T15:08:18.856Z"
  },
  {
    "_id":"55ccc5376675e91100163ec7",
    "__v":0,
    "date":"2020-04-13T15:08:23.859Z"
  },
  {
    "_id":"575545fac8dcd611008b6f3d",
    "__v":0,
    "date":"2020-04-13T15:08:28.862Z"
  },
  {
    "_id":"58c7998191042b120070e89f",
    "__v":0,
    "date":"2020-04-13T15:08:33.865Z"
  },
  {
    "_id":"5925a5b82a37d71100415e5f",
    "__v":0,
    "date":"2020-04-13T15:08:38.867Z"
  },
  {
    "_id":"59383794a81c151100ec9cf2",
    "__v":0,
    "date":"2020-04-13T15:08:43.868Z"
  },
  {
    "_id":"593837f4a81c151100ec9cf5",
    "__v":0,
    "date":"2020-04-13T15:08:48.871Z"
  },
  {
    "_id":"59383864a81c151100ec9cfa",
    "__v":0,
    "date":"2020-04-13T15:08:53.872Z"
  },
  {
    "_id":"593838b7a81c151100ec9d09",
    "__v":0,
    "date":"2020-04-13T15:08:58.875Z"
  },
  {
    "_id":"5938395ea81c151100ec9d0d",
    "__v":0,
    "date":"2020-04-13T15:09:03.878Z"
  },
  {
    "_id":"593839a5a81c151100ec9d10",
    "__v":0,
    "date":"2020-04-13T15:09:08.879Z"
  },
  {
    "_id":"593839d4a81c151100ec9d13",
    "__v":0,
    "date":"2020-04-13T15:09:13.883Z"
  },
  {
    "_id":"593a842d7c52901100c8815c",
    "__v":0,
    "date":"2020-04-13T15:09:18.886Z"
  },
  {
    "_id":"593fd40f981c98110027ac06",
    "__v":0,
    "date":"2020-04-13T15:09:23.889Z"
  },
  {
    "_id":"59822e1c5f0c8f1100bfd7ef",
    "__v":0,
    "date":"2020-04-13T15:09:28.889Z"
  },
  {
    "_id":"59df6708ee2641110052e9df",
    "__v":0,
    "date":"2020-04-13T15:09:33.891Z"
  },
  {
    "_id":"59f20916d3526c110039b12c",
    "__v":0,
    "date":"2020-04-13T15:09:38.895Z"
  },
  {
    "_id":"59f20944d3526c110039b12d",
    "__v":0,
    "date":"2020-04-13T15:09:43.895Z"
  },
  {
    "_id":"59f20953d3526c110039b12e",
    "__v":0,
    "date":"2020-04-13T15:09:48.899Z"
  },
  {
    "_id":"59f2095fd3526c110039b12f",
    "__v":0,
    "date":"2020-04-13T15:09:53.902Z"
  },
  {
    "_id":"59f20968d3526c110039b130",
    "__v":0,
    "date":"2020-04-13T15:09:58.906Z"
  },
  {
    "_id":"5a058ed3f15777120016fe4d",
    "__v":0,
    "date":"2020-04-13T15:10:03.907Z"
  },
  {
    "_id":"5c70175a04ea7c2af6d0b028",
    "__v":0,
    "date":"2020-04-13T15:10:08.907Z"
  },
  {
    "_id":"5c75c05e5fcde7001453cc61",
    "__v":0,
    "date":"2020-04-13T15:10:13.907Z"
  },
  {
    "_id":"5c75c35e5fcde7001453ccc5",
    "__v":0,
    "date":"2020-04-13T15:10:18.907Z"
  },
  {
    "_id":"5c75c3d55fcde7001453cd2c",
    "__v":0,
    "date":"2020-04-13T15:10:23.907Z"
  },
  {
    "_id":"5c75c3e75fcde7001453cd2f",
    "__v":0,
    "date":"2020-04-13T15:10:28.907Z"
  },
  {
    "_id":"5c7802865fcde7001453e06e",
    "__v":0,
    "date":"2020-04-13T15:10:33.907Z"
  },
  {
    "_id":"5c7f00065fcde70014540836",
    "__v":0,
    "date":"2020-04-13T15:10:38.910Z"
  },
  {
    "_id":"5c7f004b5fcde70014540839",
    "__v":0,
    "date":"2020-04-13T15:10:43.912Z"
  },
  {
    "_id":"5c7f01515fcde7001454083e",
    "__v":0,
    "date":"2020-04-13T15:10:48.912Z"
  },
  {
    "_id":"5c7f01915fcde70014540841",
    "__v":0,
    "date":"2020-04-13T15:10:53.912Z"
  },
  {
    "_id":"5c7f01e35fcde70014540844",
    "__v":0,
    "date":"2020-04-13T15:10:58.912Z"
  },
  {
    "_id":"5c87b2485fcde7001454387b",
    "__v":0,
    "date":"2020-04-13T15:11:03.912Z"
  },
  {
    "_id":"5c8a45e35fcde700145445d5",
    "__v":0,
    "date":"2020-04-13T15:11:08.912Z"
  },
  {
    "_id":"5cab760b3a90ef000fbd7d4b",
    "__v":0,
    "date":"2020-04-13T15:11:13.912Z"
  },
  {
    "_id":"5e1c694c76d004002080d779",
    "__v":0,
    "date":"2020-04-13T15:11:18.912Z"
  },
  {
    "_id":"5e1c6c7076d004002080d77c",
    "__v":0,
    "date":"2020-04-13T15:11:23.912Z"
  },
  {
    "_id":"5e1f386e76d004002080e5e6",
    "__v":0,
    "date":"2020-04-13T15:11:28.915Z"
  },
  {
    "_id":"5e1f3a5376d004002080e92c",
    "__v":0,
    "date":"2020-04-13T15:11:33.918Z"
  },
  {
    "_id":"5e29783376d00400208139c0",
    "__v":0,
    "date":"2020-04-13T15:11:38.919Z"
  },
  {
    "_id":"5e3d6b51a3fad9002087404a",
    "__v":0,
    "date":"2020-04-13T15:11:43.924Z"
  },
  {
    "_id":"5e4eae65a3fad9002087bbf1",
    "__v":0,
    "date":"2020-04-13T15:11:48.925Z"
  },
  {
    "_id":"5e4eb2c7a3fad9002087bdf0",
    "__v":0,
    "date":"2020-04-13T15:11:53.927Z"
  },
  {
    "_id":"5e555aeba3fad9002087fa17",
    "__v":0,
    "date":"2020-04-13T15:11:58.927Z"
  },
  {
    "_id":"5e5d480ba3fad9002088473e",
    "__v":0,
    "date":"2020-04-13T15:12:03.930Z"
  },
  {
    "_id":"5e948a52afd30d0017fe18db",
    "__v":0,
    "date":"2020-04-13T15:12:03.930Z"
  }
]